^D:\CLASSES-FOR-MIDDLES\DZ\LECTURE1\SOTRUDNIK\SOTRUDNIK\MESSAGES.EN-US.RESX|D:\CLASSES-FOR-MIDDLES\DZ\LECTURE1\SOTRUDNIK\SOTRUDNIK\MESSAGES.RESX
D:\CLASSES-FOR-MIDDLES\DZ\LECTURE1\SOTRUDNIK\SOTRUDNIK\OBJ\X86\DEBUG\SOTRUDNIK.MESSAGES.RESOURCES
D:\CLASSES-FOR-MIDDLES\DZ\LECTURE1\SOTRUDNIK\SOTRUDNIK\OBJ\X86\DEBUG\SOTRUDNIK.MESSAGES.EN-US.RESOURCES
^D:\HOME\LECTURE3\SOTRUDNIK\SOTRUDNIK\MESSAGES.EN-US.RESX|D:\HOME\LECTURE3\SOTRUDNIK\SOTRUDNIK\MESSAGES.RESX
D:\HOME\LECTURE3\SOTRUDNIK\SOTRUDNIK\OBJ\X86\DEBUG\SOTRUDNIK.MESSAGES.EN-US.RESOURCES
D:\HOME\LECTURE3\SOTRUDNIK\SOTRUDNIK\OBJ\X86\DEBUG\SOTRUDNIK.MESSAGES.RESOURCES
