^D:\CLASSES-FOR-MIDDLES\DZ\LECTURE1\AVTOCAR\AVTOCAR\MESSAGES.EN-US.RESX|D:\CLASSES-FOR-MIDDLES\DZ\LECTURE1\AVTOCAR\AVTOCAR\MESSAGES.RESX
D:\CLASSES-FOR-MIDDLES\DZ\LECTURE1\AVTOCAR\AVTOCAR\OBJ\X86\DEBUG\AVTOCAR.MESSAGES.RESOURCES
D:\CLASSES-FOR-MIDDLES\DZ\LECTURE1\AVTOCAR\AVTOCAR\OBJ\X86\DEBUG\AVTOCAR.MESSAGES.EN-US.RESOURCES
