^D:\CLASSES-FOR-MIDDLES\DZ\LECTURE1\SRUDENT_EXAM\SRUDENT_EXAM\MESSAGES.EN-US.RESX|D:\CLASSES-FOR-MIDDLES\DZ\LECTURE1\SRUDENT_EXAM\SRUDENT_EXAM\MESSAGES.RESX
D:\CLASSES-FOR-MIDDLES\DZ\LECTURE1\SRUDENT_EXAM\SRUDENT_EXAM\OBJ\X86\DEBUG\STUDENT_EXAM.MESSAGES.RESOURCES
D:\CLASSES-FOR-MIDDLES\DZ\LECTURE1\SRUDENT_EXAM\SRUDENT_EXAM\OBJ\X86\DEBUG\STUDENT_EXAM.MESSAGES.EN-US.RESOURCES
